--------------------------------------------------------------------------
MPI_ABORT was invoked on rank 1 in communicator MPI_COMM_WORLD
with errorcode 16.

NOTE: invoking MPI_ABORT causes Open MPI to kill all MPI processes.
You may or may not see output from other processes, depending on
exactly when Open MPI kills them.
--------------------------------------------------------------------------
[instance-0:14196] 1 more process has sent help message help-mpi-api.txt / mpi-abort
[instance-0:14196] Set MCA parameter "orte_base_help_aggregate" to 0 to see all help / error messages
